Aggregate PurpleAir Timeseries Object — pat_aggregate • AirSensor
…
# Create aggregation functions
FUN_mean <- function(x) mean(x, na.rm = TRUE)
FUN_max <- function(x) max(x, na.rm = TRUE)
FUN_count <- function(x) length(na.omit(x))

# Hourly means
pat %>%
  pat_aggregate(FUN_mean) %>% 
  pat_extractData() %>% 
  dplyr::select(1:9)
#> # A tibble: 137 × 9
#>    datetime            sensor_index  rssi uptime pa_latency memory humidity
#>    <dttm>                     <dbl> <dbl>  <dbl>      <dbl>  <dbl>    <dbl>
#>  1 2022-07-02 07:00:00         3515 -77.0 18130.       536. 15498.    100  
#>  2 2022-07-02 08:00:00         3515 -77.6 21163.       981. 15557.    100  
#>  3 2022-07-02 09:00:00         3515 -78   15808.      4071. 13687.    100  
#>  4 2022-07-02 10:00:00         3515 -78.7   949.       943. 12825.    100  
#>  5 2022-07-02 11:00:00         3515 -80.0  1710.      2248. 14312.    100  
#>  6 2022-07-02 12:00:00         3515 -81.0  4972.       910. 15301.    100  
#>  7 2022-07-02 13:00:00         3515 -82.0  8470.      1152. 15515.    100  
#>  8 2022-07-02 14:00:00         3515 -79.5 11976.       766. 15485.     99.3
#>  9 2022-07-02 15:00:00         3515 -77.7 14619.      2026. 15105.     82.3
#> 10 2022-07-02 16:00:00         3515 -78.2  1557.      1344. 15099.     68.5
#> # ℹ 127 more rows
#> # ℹ 2 more variables: temperature <dbl>, pressure <dbl>
…
#> Warning: no non-missing arguments to max; returning -Inf
#> Warning: no non-missing arguments to max; returning -Inf
#> Warning: no non-missing arguments to max; returning -Inf
#> Warning: no non-missing arguments to max; returning -Inf
#> Warning: no non-missing arguments to max; returning -Inf
#> Warning: no non-missing arguments to max; returning -Inf
#> Warning: no non-missing arguments to max; returning -Inf
#> Warning: no non-missing arguments to max; returning -Inf
#> Warning: no non-missing arguments to max; returning -Inf
#> Warning: no non-missing arguments to max; returning -Inf
#> Warning: no non-missing arguments to max; returning -Inf
#> Warning: no non-missing arguments to max; returning -Inf
#> Warning: no non-missing arguments to max; returning -Inf
#> Warning: no non-missing arguments to max; returning -Inf
#> # A tibble: 137 × 9
#>    datetime            sensor_index  rssi uptime pa_latency memory humidity
#>    <dttm>                     <dbl> <dbl>  <dbl>      <dbl>  <dbl>    <dbl>
#>  1 2022-07-02 07:00:00         3515   -74  19690       3000  15672      100
#>  2 2022-07-02 08:00:00         3515   -75  22811       4391  16512      100
#>  3 2022-07-02 09:00:00         3515   -75  23762       7918  15512      100
#>  4 2022-07-02 10:00:00         3515   -76   1454       3115  15568      100
#>  5 2022-07-02 11:00:00         3515   -76   3009      12384  15568      100
#>  6 2022-07-02 12:00:00         3515   -77   6611       3733  16712      100
#>  7 2022-07-02 13:00:00         3515   -79  10210       9245  16008      100
#>  8 2022-07-02 14:00:00         3515   -75  13810       3341  16208      100
#>  9 2022-07-02 15:00:00         3515   -75  15856       3371  15904       89
#> 10 2022-07-02 16:00:00         3515   -74   2758       9640  15344       75
#> # ℹ 127 more rows
#> # ℹ 2 more variables: temperature <dbl>, pressure <dbl>

# Hourly counts
pat %>%
  pat_aggregate(FUN_count) %>% 
  pat_extractData() %>% 
  dplyr::select(1:9)
#> # A tibble: 137 × 9
#>    datetime            sensor_index  rssi uptime pa_latency memory humidity
#>    <dttm>                     <int> <int>  <int>      <int>  <int>    <int>
#>  1 2022-07-02 07:00:00           27    27     27         27     27       27
#>  2 2022-07-02 08:00:00           23    23     23         23     23       23
#>  3 2022-07-02 09:00:00            6     6      6          4      6        6
#>  4 2022-07-02 10:00:00           10    10     10          9     10       10
#>  5 2022-07-02 11:00:00           22    22     22         21     22       22
#>  6 2022-07-02 12:00:00           28    28     28         28     28       28
#>  7 2022-07-02 13:00:00           30    30     30         30     30       30
#>  8 2022-07-02 14:00:00           28    28     28         28     28       28
#>  9 2022-07-02 15:00:00            7     7      7          7      7        7
#> 10 2022-07-02 16:00:00           21    21     21         20     21       21
#> # ℹ 127 more rows
#> # ℹ 2 more variables: temperature <int>, pressure <int>
…
